03_augment
…
dat_aug_clean_03

# A tibble: 468 × 32
      Id Sex      Age Liver_disease          E_Alcohol_consumption E_Hepatitis_c
   <dbl> <chr>  <dbl> <chr>                  <chr>                 <chr>        
 1     1 Female     9 Hepatic encephalopathy No                    No           
 2     2 Male       6 SBP                    Yes                   Yes          
 3     3 Female     8 Ascites                No                    No           
 4     4 Female     7 Other fluid overload   No                    No           
 5     5 Male       7 Hepatic encephalopathy Yes                   No           
 6     6 Male       8 AKI                    No                    No           
 7     7 Male       7 UGIB due to portal hy… Yes                   No           
 8     8 Male       6 Other fluid overload   Yes                   Yes          
 9     9 Male       6 Hepatic encephalopathy Yes                   Yes          
10    13 Female     6 UGIB due to portal hy… Yes                   No           
# ℹ 458 more rows
# ℹ 26 more variables: E_Hepatitis_b <chr>, E_Non_alcoolic_fatty_LD <chr>,
#   E_Cryptogenic <chr>, E_Primary_sclerosing_cholangitis <chr>,
#   E_Autoimmune_hepatitis <chr>, E_Primary_biliary_cholangitis <chr>,
#   C_Myocardial_infarction <chr>, C_Congestive_Heart_Failure <chr>,
#   C_Peripheral_vascular_disease <chr>, C_Cerebro_Vascular_disease <chr>,
#   C_Dementia <chr>, C_Chronic_pulmonary_disease <chr>, …
…
   mutate(Mortality = case_when(Mortality_hospital == 'Yes' ~ 
                                  "Death_in_hospital", 
                                Mortality_hospital == 'No' & 
                                  Mortality_30_days == 'Yes' & 
                                  Mortality_90_days == 'No' ~ 
                                  "Death_in_first_30_days", 
                                Mortality_hospital == 'No' & 
                                  Mortality_30_days == 'No' & 
                                  Mortality_90_days == 'Yes' ~ 
                                  "Death_between_30_and_90_days", 
                               .default = "No death")) |> 
   select(-c(Mortality_30_days, Mortality_90_days, Mortality_hospital))
dat_aug_03

# A tibble: 1,065 × 9
      Id Sex      Age Liver_disease     CPS Charlson_CI Comorbidities Etiologies
   <dbl> <chr>  <dbl> <chr>           <dbl>       <dbl> <chr>         <chr>     
 1     1 Female     9 Hepatic enceph…     9           0 None          Cryptogen…
 2     2 Male       6 SBP                 9           3 Moderate_sev… Alcohol_c…
 3     2 Male       6 SBP                 9           3 Moderate_sev… Hepatitis…
 4     3 Female     8 Ascites             6           2 Mild_liver_d… Non_alcoo…
 5     3 Female     8 Ascites             6           2 Diabetes_wit… Non_alcoo…
 6     4 Female     7 Other fluid ov…     8           9 Myocardial_i… Cryptogen…
 7     4 Female     7 Other fluid ov…     8           9 Congestive_H… Cryptogen…
 8     4 Female     7 Other fluid ov…     8           9 Renal_disease Cryptogen…
 9     4 Female     7 Other fluid ov…     8           9 Moderate_sev… Cryptogen…
10     4 Female     7 Other fluid ov…     8           9 Diabetes_wit… Cryptogen…
# ℹ 1,055 more rows
# ℹ 1 more variable: Mortality <chr>
…
dat_aug_C_03

# A tibble: 819 × 16
      Id Sex      Age Liver_disease          E_Alcohol_consumption E_Hepatitis_c
   <dbl> <chr>  <dbl> <chr>                  <chr>                 <chr>        
 1     1 Female     9 Hepatic encephalopathy No                    No           
 2     2 Male       6 SBP                    Yes                   Yes          
 3     3 Female     8 Ascites                No                    No           
 4     3 Female     8 Ascites                No                    No           
 5     4 Female     7 Other fluid overload   No                    No           
 6     4 Female     7 Other fluid overload   No                    No           
 7     4 Female     7 Other fluid overload   No                    No           
 8     4 Female     7 Other fluid overload   No                    No           
 9     4 Female     7 Other fluid overload   No                    No           
10     5 Male       7 Hepatic encephalopathy Yes                   No           
# ℹ 809 more rows
# ℹ 10 more variables: E_Hepatitis_b <chr>, E_Non_alcoolic_fatty_LD <chr>,
#   E_Cryptogenic <chr>, E_Primary_sclerosing_cholangitis <chr>,
#   E_Autoimmune_hepatitis <chr>, E_Primary_biliary_cholangitis <chr>,
#   CPS <dbl>, Charlson_CI <dbl>, Comorbidities <chr>, Mortality <chr>
…
dat_aug_E_03

# A tibble: 611 × 25
      Id Sex     Age Liver_disease C_Myocardial_infarct…¹ C_Congestive_Heart_F…²
   <dbl> <chr> <dbl> <chr>         <chr>                  <chr>                 
 1     1 Fema…     9 Hepatic ence… No                     No                    
 2     2 Male      6 SBP           No                     No                    
 3     2 Male      6 SBP           No                     No                    
 4     3 Fema…     8 Ascites       No                     No                    
 5     4 Fema…     7 Other fluid … Yes                    Yes                   
 6     5 Male      7 Hepatic ence… No                     No                    
 7     6 Male      8 AKI           Yes                    Yes                   
 8     7 Male      7 UGIB due to … No                     No                    
 9     8 Male      6 Other fluid … No                     No                    
10     8 Male      6 Other fluid … No                     No                    
# ℹ 601 more rows
# ℹ abbreviated names: ¹​C_Myocardial_infarction, ²​C_Congestive_Heart_Failure
# ℹ 19 more variables: C_Peripheral_vascular_disease <chr>,
#   C_Cerebro_Vascular_disease <chr>, C_Dementia <chr>,
#   C_Chronic_pulmonary_disease <chr>, C_Rheumatological_disease <chr>,
#   C_Pepticulcer_disease <chr>, C_Mild_liver_disease <chr>,
#   C_Heiplegia_paraplegia <chr>, C_Renal_disease <chr>, C_Malignancy <chr>, …

Introduction of a categorical variable - change Decades into age categories

Clean

dat_aug_clean_03 <- dat_aug_clean_03 |>
  mutate(Age = str_c('[', Age*10, '; ', (Age + 1)*10, ']'))

dat_aug_clean_03

# A tibble: 468 × 32
      Id Sex    Age       Liver_disease      E_Alcohol_consumption E_Hepatitis_c
   <dbl> <chr>  <chr>     <chr>              <chr>                 <chr>        
 1     1 Female [90; 100] Hepatic encephalo… No                    No           
 2     2 Male   [60; 70]  SBP                Yes                   Yes          
 3     3 Female [80; 90]  Ascites            No                    No           
 4     4 Female [70; 80]  Other fluid overl… No                    No           
 5     5 Male   [70; 80]  Hepatic encephalo… Yes                   No           
 6     6 Male   [80; 90]  AKI                No                    No           
 7     7 Male   [70; 80]  UGIB due to porta… Yes                   No           
 8     8 Male   [60; 70]  Other fluid overl… Yes                   Yes          
 9     9 Male   [60; 70]  Hepatic encephalo… Yes                   Yes          
10    13 Female [60; 70]  UGIB due to porta… Yes                   No           
# ℹ 458 more rows
# ℹ 26 more variables: E_Hepatitis_b <chr>, E_Non_alcoolic_fatty_LD <chr>,
#   E_Cryptogenic <chr>, E_Primary_sclerosing_cholangitis <chr>,
#   E_Autoimmune_hepatitis <chr>, E_Primary_biliary_cholangitis <chr>,
#   C_Myocardial_infarction <chr>, C_Congestive_Heart_Failure <chr>,
#   C_Peripheral_vascular_disease <chr>, C_Cerebro_Vascular_disease <chr>,
#   C_Dementia <chr>, C_Chronic_pulmonary_disease <chr>, …

Tidy

dat_aug_03 <- dat_aug_03 |>
  mutate(Age = str_c('[', Age*10, '; ', (Age + 1)*10, ']'))

dat_aug_03

# A tibble: 1,065 × 9
      Id Sex    Age     Liver_disease   CPS Charlson_CI Comorbidities Etiologies
   <dbl> <chr>  <chr>   <chr>         <dbl>       <dbl> <chr>         <chr>     
 1     1 Female [90; 1… Hepatic ence…     9           0 None          Cryptogen…
 2     2 Male   [60; 7… SBP               9           3 Moderate_sev… Alcohol_c…
 3     2 Male   [60; 7… SBP               9           3 Moderate_sev… Hepatitis…
 4     3 Female [80; 9… Ascites           6           2 Mild_liver_d… Non_alcoo…
 5     3 Female [80; 9… Ascites           6           2 Diabetes_wit… Non_alcoo…
 6     4 Female [70; 8… Other fluid …     8           9 Myocardial_i… Cryptogen…
 7     4 Female [70; 8… Other fluid …     8           9 Congestive_H… Cryptogen…
 8     4 Female [70; 8… Other fluid …     8           9 Renal_disease Cryptogen…
 9     4 Female [70; 8… Other fluid …     8           9 Moderate_sev… Cryptogen…
10     4 Female [70; 8… Other fluid …     8           9 Diabetes_wit… Cryptogen…
# ℹ 1,055 more rows
# ℹ 1 more variable: Mortality <chr>
…
