06_analysis_comorbidities_etiologies
…
Creation of a dataset with count of patients with same disease and same

comorbidities

grouped_LD_C <- dat_aug_03 |>
  group_by(Liver_disease, Comorbidities) |> 
  summarise(count = n()) |> 
  arrange(Liver_disease, desc(count)) 

`summarise()` has grouped output by 'Liver_disease'. You can override using the
`.groups` argument.

grouped_LD_C

# A tibble: 96 × 3
# Groups:   Liver_disease [10]
   Liver_disease Comorbidities                       count
   <chr>         <chr>                               <int>
 1 AKI           Moderate_severe_liver_disease          13
 2 AKI           Congestive_Heart_Failure                7
 3 AKI           Diabetes_with_without_complications     7
 4 AKI           Mild_liver_disease                      6
 5 AKI           Renal_disease                           4
 6 AKI           Chronic_pulmonary_disease               3
 7 AKI           Malignancy                              3
 8 AKI           Pepticulcer_disease                     2
 9 AKI           Metastatic_solid_tumor                  1
10 AKI           Myocardial_infarction                   1
# ℹ 86 more rows
…
Joining of the two dataset according to Liver_disease

merged_dat1 <- inner_join(grouped_LD_C, grouped_LD, by = 'Liver_disease')

# Calculate the ratio of count to total count
merged_dat1 <- merged_dat1|>
  mutate(Ratio = count / count_LD)

merged_dat1

# A tibble: 96 × 5
# Groups:   Liver_disease [10]
   Liver_disease Comorbidities                       count count_LD  Ratio
   <chr>         <chr>                               <int>    <int>  <dbl>
 1 AKI           Moderate_severe_liver_disease          13       47 0.277 
 2 AKI           Congestive_Heart_Failure                7       47 0.149 
 3 AKI           Diabetes_with_without_complications     7       47 0.149 
 4 AKI           Mild_liver_disease                      6       47 0.128 
 5 AKI           Renal_disease                           4       47 0.0851
 6 AKI           Chronic_pulmonary_disease               3       47 0.0638
 7 AKI           Malignancy                              3       47 0.0638
 8 AKI           Pepticulcer_disease                     2       47 0.0426
 9 AKI           Metastatic_solid_tumor                  1       47 0.0213
10 AKI           Myocardial_infarction                   1       47 0.0213
# ℹ 86 more rows
…
Creation of a new dataset counting patients with same disease and same

etiology

grouped_LD_E <- dat_aug_03 |> 
  group_by(Liver_disease, Etiologies) |> 
  summarise(count = n()) 

`summarise()` has grouped output by 'Liver_disease'. You can override using the
`.groups` argument.

grouped_LD_E

# A tibble: 40 × 3
# Groups:   Liver_disease [10]
   Liver_disease       Etiologies           count
   <chr>               <chr>                <int>
 1 AKI                 Alcohol_consumption     23
 2 AKI                 Cryptogenic              7
 3 AKI                 Hepatitis_c             17
 4 Alcoholic hepatitis Alcohol_consumption     56
 5 Alcoholic hepatitis Hepatitis_c             20
 6 Ascites             Alcohol_consumption    156
 7 Ascites             Autoimmune_hepatitis     2
 8 Ascites             Cryptogenic             23
 9 Ascites             Hepatitis_b              8
10 Ascites             Hepatitis_c             83
# ℹ 30 more rows

Joining of the two dataset according to Liver_disease

merged_dat2 <- inner_join(grouped_LD_E, grouped_LD, by = 'Liver_disease')

# Calculate the ratio of count to total count
merged_dat2 <- merged_dat2|>
  mutate(Ratio = count / count_LD)

merged_dat2

# A tibble: 40 × 5
# Groups:   Liver_disease [10]
   Liver_disease       Etiologies           count count_LD   Ratio
   <chr>               <chr>                <int>    <int>   <dbl>
 1 AKI                 Alcohol_consumption     23       47 0.489  
 2 AKI                 Cryptogenic              7       47 0.149  
 3 AKI                 Hepatitis_c             17       47 0.362  
 4 Alcoholic hepatitis Alcohol_consumption     56       76 0.737  
 5 Alcoholic hepatitis Hepatitis_c             20       76 0.263  
 6 Ascites             Alcohol_consumption    156      291 0.536  
 7 Ascites             Autoimmune_hepatitis     2      291 0.00687
 8 Ascites             Cryptogenic             23      291 0.0790 
 9 Ascites             Hepatitis_b              8      291 0.0275 
10 Ascites             Hepatitis_c             83      291 0.285  
# ℹ 30 more rows
…
Does etiology have influences on the mortality of patients for he same liver

disease ?

dat_aug_03_2 <- dat_aug_03 |> 
  filter(Mortality != 'No death') |> 
  group_by(Liver_disease, Etiologies, Mortality) |> 
  summarise(count2 = n())

`summarise()` has grouped output by 'Liver_disease', 'Etiologies'. You can
override using the `.groups` argument.

dat_aug_03_2

# A tibble: 43 × 4
# Groups:   Liver_disease, Etiologies [27]
   Liver_disease       Etiologies          Mortality                    count2
   <chr>               <chr>               <chr>                         <int>
 1 AKI                 Alcohol_consumption Death_in_hospital                 2
 2 AKI                 Cryptogenic         Death_in_hospital                 5
 3 Alcoholic hepatitis Alcohol_consumption Death_between_30_and_90_days      2
 4 Alcoholic hepatitis Alcohol_consumption Death_in_hospital                 6
 5 Alcoholic hepatitis Hepatitis_c         Death_in_hospital                 1
 6 Ascites             Alcohol_consumption Death_between_30_and_90_days      7
 7 Ascites             Alcohol_consumption Death_in_first_30_days            8
 8 Ascites             Alcohol_consumption Death_in_hospital                12
 9 Ascites             Cryptogenic         Death_between_30_and_90_days      3
10 Ascites             Cryptogenic         Death_in_hospital                 1
# ℹ 33 more rows
…
