07_analysis_CPS
…
Effects of different etiologies on Child Pugh Score

Because the comorbidities don’t seem to be related to the CPS, we are now interested in investigating which etiologies are significantly more or less present in patients with different CPS. In order to do that, we use a linear regression model:

df <- df_Etiology |>
  select(-c(Otherliverdiseaseetiology,
            PrimarySclerosingCholangitis))

df

# A tibble: 733 × 9
      ID   cps Alcohol   hcv   hbv nafld Cryptogenic Autoimmunehepatitis   pbc
   <dbl> <dbl>   <dbl> <dbl> <dbl> <dbl>       <dbl>               <dbl> <dbl>
 1     1     9       0     0     0     0           1                   0     0
 2     2     9       1     1     0     0           0                   0     0
 3     3     6       0     0     0     1           0                   0     0
 4     4     8       0     0     0     0           1                   0     0
 5     5    11       1     0     0     0           0                   0     0
 6     6     8       0     0     0     0           1                   0     0
 7     7     7       1     0     0     0           0                   0     0
 8     8     7       1     1     1     0           0                   0     0
 9     9    11       1     1     0     0           0                   0     0
10    10    12       1     1     0     0           0                   0     0
# ℹ 723 more rows
…
By looking at the p-value, we can see if the variable “Alcohol” is statistically significant or not. p-value > 0.05 so the variable is not statistically significant.

Pivoting the data to get a long dataset, so that all the etiologies are defined in one column:

df_Etiology_long <- df |> 
  pivot_longer(
    cols = -c(ID, cps),
    names_to = "Etiologies",
    values_to = "Presence"
  )

df_Etiology_long

# A tibble: 5,131 × 4
      ID   cps Etiologies          Presence
   <dbl> <dbl> <chr>                  <dbl>
 1     1     9 Alcohol                    0
 2     1     9 hcv                        0
 3     1     9 hbv                        0
 4     1     9 nafld                      0
 5     1     9 Cryptogenic                1
 6     1     9 Autoimmunehepatitis        0
 7     1     9 pbc                        0
 8     2     9 Alcohol                    1
 9     2     9 hcv                        1
10     2     9 hbv                        0
# ℹ 5,121 more rows
…
