02_clean
…
Joining the two datasets

df_Etiology_and_Comorbidities <- left_join(df_Etiology, df_Comorbidities)

Joining with `by = join_by(ID)`

df_Etiology_and_Comorbidities

# A tibble: 733 × 22
      ID   cps Alcohol   hcv   hbv nafld Cryptogenic PrimarySclerosingCholangi…¹
   <int> <dbl>   <dbl> <dbl> <dbl> <dbl>       <dbl>                       <dbl>
 1     1     9       0     0     0     0           1                           0
 2     2     9       1     1     0     0           0                           0
 3     3     6       0     0     0     1           0                           0
 4     4     8       0     0     0     0           1                           0
 5     5    11       1     0     0     0           0                           0
 6     6     8       0     0     0     0           1                           0
 7     7     7       1     0     0     0           0                           0
 8     8     7       1     1     1     0           0                           0
 9     9    11       1     1     0     0           0                           0
10    10    12       1     1     0     0           0                           0
# ℹ 723 more rows
# ℹ abbreviated name: ¹​PrimarySclerosingCholangitis
# ℹ 14 more variables: Autoimmunehepatitis <dbl>, pbc <dbl>,
#   Otherliverdiseaseetiology <chr>, mi <dbl>, chf <dbl>, pvd <dbl>,
#   Cerebrovasculardisease <dbl>, Dementia <dbl>,
#   Chronicpulmonorydisease <dbl>, Rheumatologicaldisease <dbl>,
#   Pepticulcerdisease <dbl>, Anymalignancyincludinglymphomaor <dbl>, …
…
  # Getting rid of observations with NA values: data set goes from 733 patients 
  # to 468 patients which is still acceptable 
  drop_na(CPS) |> 
  drop_na(Sex) |> 
  drop_na(Mortality_hospital) |> 
  drop_na(Mortality_30_days) |> 
  drop_na(Mortality_90_days)
 
dat_clean_02

# A tibble: 468 × 34
      Id Sex      Age Liver_disease          E_Alcohol_consumption E_Hepatitis_c
   <int> <chr>  <dbl> <chr>                  <chr>                 <chr>        
 1     1 Female     9 Hepatic encephalopathy No                    No           
 2     2 Male       6 SBP                    Yes                   Yes          
 3     3 Female     8 Ascites                No                    No           
 4     4 Female     7 Other fluid overload   No                    No           
 5     5 Male       7 Hepatic encephalopathy Yes                   No           
 6     6 Male       8 AKI                    No                    No           
 7     7 Male       7 UGIB due to portal hy… Yes                   No           
 8     8 Male       6 Other fluid overload   Yes                   Yes          
 9     9 Male       6 Hepatic encephalopathy Yes                   Yes          
10    13 Female     6 UGIB due to portal hy… Yes                   No           
# ℹ 458 more rows
# ℹ 28 more variables: E_Hepatitis_b <chr>, E_Non_alcoolic_fatty_LD <chr>,
#   E_Cryptogenic <chr>, E_Primary_sclerosing_cholangitis <chr>,
#   E_Autoimmune_hepatitis <chr>, E_Primary_biliary_cholangitis <chr>,
#   C_Myocardial_infarction <chr>, C_Congestive_Heart_Failure <chr>,
#   C_Peripheral_vascular_disease <chr>, C_Cerebro_Vascular_disease <chr>,
#   C_Dementia <chr>, C_Chronic_pulmonary_disease <chr>, …
…
dat_tidy_C_02 <- dat_clean_02 |>
  # Create a column Comorbidities using the pivot_longer (one column /
  # one line / one observation)
  pivot_longer(
    cols = starts_with("C_"), 
    names_to = "Comorbidities", 
    values_to = "Presence_of_comorbidities",
    values_drop_na = TRUE) |> 
  filter(Presence_of_comorbidities == 'Yes') |> 
  select(-Presence_of_comorbidities) |> 
  mutate(Comorbidities = str_remove(Comorbidities, "C_"))

dat_tidy_C_02 

# A tibble: 819 × 18
      Id Sex      Age Liver_disease          E_Alcohol_consumption E_Hepatitis_c
   <int> <chr>  <dbl> <chr>                  <chr>                 <chr>        
 1     1 Female     9 Hepatic encephalopathy No                    No           
 2     2 Male       6 SBP                    Yes                   Yes          
 3     3 Female     8 Ascites                No                    No           
 4     3 Female     8 Ascites                No                    No           
 5     4 Female     7 Other fluid overload   No                    No           
 6     4 Female     7 Other fluid overload   No                    No           
 7     4 Female     7 Other fluid overload   No                    No           
 8     4 Female     7 Other fluid overload   No                    No           
 9     4 Female     7 Other fluid overload   No                    No           
10     5 Male       7 Hepatic encephalopathy Yes                   No           
# ℹ 809 more rows
# ℹ 12 more variables: E_Hepatitis_b <chr>, E_Non_alcoolic_fatty_LD <chr>,
#   E_Cryptogenic <chr>, E_Primary_sclerosing_cholangitis <chr>,
#   E_Autoimmune_hepatitis <chr>, E_Primary_biliary_cholangitis <chr>,
#   CPS <dbl>, Charlson_CI <dbl>, Mortality_hospital <chr>,
#   Mortality_30_days <chr>, Mortality_90_days <chr>, Comorbidities <chr>
…
  # Only select the patients that have comorbidity + the one that have 
  #C_none = Yes
  filter(Presence_of_comorbidities == 'Yes') |> 
  select(-Presence_of_comorbidities) |> 
  filter(Presence_of_etiologies == 'Yes') |> 
  select(-Presence_of_etiologies) |> 
  
  # Change the name of the observations to make it more digest
  mutate(Comorbidities = str_remove(Comorbidities, "C_")) |> 
  mutate(Etiologies = str_remove(Etiologies, "E_"))

dat_tidy_02

# A tibble: 1,065 × 11
      Id Sex      Age Liver_disease           CPS Charlson_CI Mortality_hospital
   <int> <chr>  <dbl> <chr>                 <dbl>       <dbl> <chr>             
 1     1 Female     9 Hepatic encephalopat…     9           0 No                
 2     2 Male       6 SBP                       9           3 No                
 3     2 Male       6 SBP                       9           3 No                
 4     3 Female     8 Ascites                   6           2 No                
 5     3 Female     8 Ascites                   6           2 No                
 6     4 Female     7 Other fluid overload      8           9 No                
 7     4 Female     7 Other fluid overload      8           9 No                
 8     4 Female     7 Other fluid overload      8           9 No                
 9     4 Female     7 Other fluid overload      8           9 No                
10     4 Female     7 Other fluid overload      8           9 No                
# ℹ 1,055 more rows
# ℹ 4 more variables: Mortality_30_days <chr>, Mortality_90_days <chr>,
#   Comorbidities <chr>, Etiologies <chr>
…
