05_analysis_mortality
…
Effect of different etiologies on mortality

We start by creating a new data set where we add three variables. The three variable are three different etiologies and their significance concerning Child Pugh score was assessed with a linear regression model in the file 07. Because the Child Pugh Score indicates the severity of the cirrhosis, it could be related to the mortality, and we will verify that hypothesis with the following plots.

dat_mortality <- dat_aug_03 |> 
  mutate(Alcohol = ifelse(Etiologies == "Alcohol_consumption", "yes", "no")) |> 
  mutate(NAFLD = ifelse(Etiologies == "Non_alcoolic_fatty_LD", "yes", "no")) |> 
  mutate(Cryptogenic = ifelse(Etiologies == "Cryptogenic", "yes", "no")) 

dat_mortality

# A tibble: 1,065 × 12
      Id Sex    Age     Liver_disease   CPS Charlson_CI Comorbidities Etiologies
   <dbl> <chr>  <chr>   <chr>         <dbl>       <dbl> <chr>         <chr>     
 1     1 Female [90; 1… Hepatic ence…     9           0 None          Cryptogen…
 2     2 Male   [60; 7… SBP               9           3 Moderate_sev… Alcohol_c…
 3     2 Male   [60; 7… SBP               9           3 Moderate_sev… Hepatitis…
 4     3 Female [80; 9… Ascites           6           2 Mild_liver_d… Non_alcoo…
 5     3 Female [80; 9… Ascites           6           2 Diabetes_wit… Non_alcoo…
 6     4 Female [70; 8… Other fluid …     8           9 Myocardial_i… Cryptogen…
 7     4 Female [70; 8… Other fluid …     8           9 Congestive_H… Cryptogen…
 8     4 Female [70; 8… Other fluid …     8           9 Renal_disease Cryptogen…
 9     4 Female [70; 8… Other fluid …     8           9 Moderate_sev… Cryptogen…
10     4 Female [70; 8… Other fluid …     8           9 Diabetes_wit… Cryptogen…
# ℹ 1,055 more rows
# ℹ 4 more variables: Mortality <chr>, Alcohol <chr>, NAFLD <chr>,
#   Cryptogenic <chr>
…
Effect of the number of etiologies and comorbidities

Another hypothesis that can be made could be that the number of etiologies and comorbidities that a patient has impacts the mortality of that patient.

Analysis number of etiologies

dat_aug_E_03 <- dat_aug_E_03 |> 
    group_by(Id) |> 
    mutate(number_etiologies = n()) |> 
    ungroup()

dat_aug_E_03

# A tibble: 611 × 26
      Id Sex     Age Liver_disease C_Myocardial_infarct…¹ C_Congestive_Heart_F…²
   <dbl> <chr> <dbl> <chr>         <chr>                  <chr>                 
 1     1 Fema…     9 Hepatic ence… No                     No                    
 2     2 Male      6 SBP           No                     No                    
 3     2 Male      6 SBP           No                     No                    
 4     3 Fema…     8 Ascites       No                     No                    
 5     4 Fema…     7 Other fluid … Yes                    Yes                   
 6     5 Male      7 Hepatic ence… No                     No                    
 7     6 Male      8 AKI           Yes                    Yes                   
 8     7 Male      7 UGIB due to … No                     No                    
 9     8 Male      6 Other fluid … No                     No                    
10     8 Male      6 Other fluid … No                     No                    
# ℹ 601 more rows
# ℹ abbreviated names: ¹​C_Myocardial_infarction, ²​C_Congestive_Heart_Failure
# ℹ 20 more variables: C_Peripheral_vascular_disease <chr>,
#   C_Cerebro_Vascular_disease <chr>, C_Dementia <chr>,
#   C_Chronic_pulmonary_disease <chr>, C_Rheumatological_disease <chr>,
#   C_Pepticulcer_disease <chr>, C_Mild_liver_disease <chr>,
#   C_Heiplegia_paraplegia <chr>, C_Renal_disease <chr>, C_Malignancy <chr>, …
…
Analysis number of comorbidities

dat_aug_C_03 <- dat_aug_C_03 |> 
    group_by(Id) |> 
    mutate(number_comorbidities = n()) |> 
    ungroup()

dat_aug_C_03

# A tibble: 819 × 17
      Id Sex      Age Liver_disease          E_Alcohol_consumption E_Hepatitis_c
   <dbl> <chr>  <dbl> <chr>                  <chr>                 <chr>        
 1     1 Female     9 Hepatic encephalopathy No                    No           
 2     2 Male       6 SBP                    Yes                   Yes          
 3     3 Female     8 Ascites                No                    No           
 4     3 Female     8 Ascites                No                    No           
 5     4 Female     7 Other fluid overload   No                    No           
 6     4 Female     7 Other fluid overload   No                    No           
 7     4 Female     7 Other fluid overload   No                    No           
 8     4 Female     7 Other fluid overload   No                    No           
 9     4 Female     7 Other fluid overload   No                    No           
10     5 Male       7 Hepatic encephalopathy Yes                   No           
# ℹ 809 more rows
# ℹ 11 more variables: E_Hepatitis_b <chr>, E_Non_alcoolic_fatty_LD <chr>,
#   E_Cryptogenic <chr>, E_Primary_sclerosing_cholangitis <chr>,
#   E_Autoimmune_hepatitis <chr>, E_Primary_biliary_cholangitis <chr>,
#   CPS <dbl>, Charlson_CI <dbl>, Comorbidities <chr>, Mortality <chr>,
#   number_comorbidities <int>
…
