08_analysis_liver_disease
…
Impact of different liver diseases on mortality

Data widening

df <- dat_aug_03 |>
  mutate(`Mortality (1 = y/0 = n)` = ifelse(Mortality == "No death", 0, 1)) |> 
  pivot_wider(
    names_from = Liver_disease,
    values_from = Liver_disease
    ) |> 
  mutate(across(10:19, ~ifelse(is.na(.), 0, 1)))
df

# A tibble: 1,065 × 19
      Id Sex    Age         CPS Charlson_CI Comorbidities   Etiologies Mortality
   <dbl> <chr>  <chr>     <dbl>       <dbl> <chr>           <chr>      <chr>    
 1     1 Female [90; 100]     9           0 None            Cryptogen… No death 
 2     2 Male   [60; 70]      9           3 Moderate_sever… Alcohol_c… No death 
 3     2 Male   [60; 70]      9           3 Moderate_sever… Hepatitis… No death 
 4     3 Female [80; 90]      6           2 Mild_liver_dis… Non_alcoo… No death 
 5     3 Female [80; 90]      6           2 Diabetes_with_… Non_alcoo… No death 
 6     4 Female [70; 80]      8           9 Myocardial_inf… Cryptogen… No death 
 7     4 Female [70; 80]      8           9 Congestive_Hea… Cryptogen… No death 
 8     4 Female [70; 80]      8           9 Renal_disease   Cryptogen… No death 
 9     4 Female [70; 80]      8           9 Moderate_sever… Cryptogen… No death 
10     4 Female [70; 80]      8           9 Diabetes_with_… Cryptogen… No death 
# ℹ 1,055 more rows
# ℹ 11 more variables: `Mortality (1 = y/0 = n)` <dbl>,
#   `Hepatic encephalopathy` <dbl>, SBP <dbl>, Ascites <dbl>,
#   `Other fluid overload` <dbl>, AKI <dbl>,
#   `UGIB due to portal hypertension` <dbl>, `HCC or cholangioca.` <dbl>,
#   `Alcoholic hepatitis` <dbl>, `Jaundice- as isolated presentation` <dbl>,
#   `Hepato-hydrothorax` <dbl>
…
df_long

# A tibble: 10,650 × 11
      Id Sex    Age         CPS Charlson_CI Comorbidities Etiologies  Mortality
   <dbl> <chr>  <chr>     <dbl>       <dbl> <chr>         <chr>       <chr>    
 1     1 Female [90; 100]     9           0 None          Cryptogenic No death 
 2     1 Female [90; 100]     9           0 None          Cryptogenic No death 
 3     1 Female [90; 100]     9           0 None          Cryptogenic No death 
 4     1 Female [90; 100]     9           0 None          Cryptogenic No death 
 5     1 Female [90; 100]     9           0 None          Cryptogenic No death 
 6     1 Female [90; 100]     9           0 None          Cryptogenic No death 
 7     1 Female [90; 100]     9           0 None          Cryptogenic No death 
 8     1 Female [90; 100]     9           0 None          Cryptogenic No death 
 9     1 Female [90; 100]     9           0 None          Cryptogenic No death 
10     1 Female [90; 100]     9           0 None          Cryptogenic No death 
# ℹ 10,640 more rows
# ℹ 3 more variables: `Mortality (1 = y/0 = n)` <dbl>, `Liver diseases` <chr>,
#   Presence <dbl>
…
