09_logistic_regression
…
In the following analysis we would like to check the CPS as a predictor to mortality. We will try to figure out whether a higher CPS is associated with higher odds of mortality. To do that, we will use logistic regression.

df_logistic <- dat_aug_03 |>
  mutate(`Mortality (1 = y/0 = n)` = ifelse(Mortality == "No death", 0, 1)) |> 
  pivot_wider(
    names_from = Liver_disease,
    values_from = Liver_disease
    ) |> 
  mutate(across(10:19, ~ifelse(is.na(.), 0, 1)))

we started by adding the mortality variable to our dataframe. The new variable is binary and its outcome is 0 for no, and 1 for yes.

df_logistic

# A tibble: 1,065 × 19
      Id Sex    Age         CPS Charlson_CI Comorbidities   Etiologies Mortality
   <dbl> <chr>  <chr>     <dbl>       <dbl> <chr>           <chr>      <chr>    
 1     1 Female [90; 100]     9           0 None            Cryptogen… No death 
 2     2 Male   [60; 70]      9           3 Moderate_sever… Alcohol_c… No death 
 3     2 Male   [60; 70]      9           3 Moderate_sever… Hepatitis… No death 
 4     3 Female [80; 90]      6           2 Mild_liver_dis… Non_alcoo… No death 
 5     3 Female [80; 90]      6           2 Diabetes_with_… Non_alcoo… No death 
 6     4 Female [70; 80]      8           9 Myocardial_inf… Cryptogen… No death 
 7     4 Female [70; 80]      8           9 Congestive_Hea… Cryptogen… No death 
 8     4 Female [70; 80]      8           9 Renal_disease   Cryptogen… No death 
 9     4 Female [70; 80]      8           9 Moderate_sever… Cryptogen… No death 
10     4 Female [70; 80]      8           9 Diabetes_with_… Cryptogen… No death 
# ℹ 1,055 more rows
# ℹ 11 more variables: `Mortality (1 = y/0 = n)` <dbl>,
#   `Hepatic encephalopathy` <dbl>, SBP <dbl>, Ascites <dbl>,
#   `Other fluid overload` <dbl>, AKI <dbl>,
#   `UGIB due to portal hypertension` <dbl>, `HCC or cholangioca.` <dbl>,
#   `Alcoholic hepatitis` <dbl>, `Jaundice- as isolated presentation` <dbl>,
#   `Hepato-hydrothorax` <dbl>
…
